\relax 
\providecommand\hyper@newdestlabel[2]{}
\providecommand\BKM@entry[2]{}
\providecommand\zref@newlabel[2]{}
\@nameuse{bbl@beforestart}
\catcode `"\active 
\catcode `:\active 
\catcode `;\active 
\catcode `!\active 
\catcode `?\active 
\providecommand\HyperFirstAtBeginDocument{\AtBeginDocument}
\HyperFirstAtBeginDocument{\ifx\hyper@anchor\@undefined
\global\let\oldcontentsline\contentsline
\gdef\contentsline#1#2#3#4{\oldcontentsline{#1}{#2}{#3}}
\global\let\oldnewlabel\newlabel
\gdef\newlabel#1#2{\newlabelxx{#1}#2}
\gdef\newlabelxx#1#2#3#4#5#6{\oldnewlabel{#1}{{#2}{#3}}}
\AtEndDocument{\ifx\hyper@anchor\@undefined
\let\contentsline\oldcontentsline
\let\newlabel\oldnewlabel
\fi}
\fi}
\global\let\hyper@last\relax 
\gdef\HyperFirstAtBeginDocument#1{#1}
\providecommand\HyField@AuxAddToFields[1]{}
\providecommand\HyField@AuxAddToCoFields[2]{}
\abx@aux@refcontext{ynt/global//global/global}
\@input{0/titlepage.aux}
\@input{0/introduction.aux}
\@input{1/chap1.aux}
\@input{1/exercises1.aux}
\@input{2/chap2.aux}
\@input{2/exercises2.aux}
\@input{3/chap3.aux}
\@input{3/exercises3.aux}
\@input{4/chap4.aux}
\@input{4/exercises4.aux}
\@input{5/chap5.aux}
\@input{5/exercises5.aux}
\@input{6/chap6.aux}
\@input{6/exercises6.aux}
\@input{7/chap7.aux}
\@input{7/exercises7.aux}
\@input{8/chap8.aux}
\@input{8/exercises8.aux}
\@input{9/chap9.aux}
\@input{9/exercises9.aux}
\@input{10/chap10.aux}
\@input{10/exercises10.aux}
\@input{11/chap11.aux}
\@input{11/exercises11.aux}
\@input{a/appendix.aux}
\BKM@entry{id=1,open,dest={73656374696F6E2A2E31},srcline={11}}{417070656E646978}
\babel@aux{english}{}
\@writefile{toc}{\boolfalse {citerequest}\boolfalse {citetracker}\boolfalse {pagetracker}\boolfalse {backtracker}\relax }
\@writefile{lof}{\boolfalse {citerequest}\boolfalse {citetracker}\boolfalse {pagetracker}\boolfalse {backtracker}\relax }
\@writefile{lot}{\boolfalse {citerequest}\boolfalse {citetracker}\boolfalse {pagetracker}\boolfalse {backtracker}\relax }
\babel@aux{english}{}
\providecommand {\FN@pp@footnotehinttrue }{}
\providecommand {\FN@pp@footnote@aux }[2]{}
\FN@pp@footnotehinttrue 
\FN@pp@footnotehinttrue 
\FN@pp@footnotehinttrue 
\FN@pp@footnotehinttrue 
\FN@pp@footnotehinttrue 
\FN@pp@footnotehinttrue 
\FN@pp@footnotehinttrue 
\FN@pp@footnotehinttrue 
\FN@pp@footnotehinttrue 
\FN@pp@footnotehinttrue 
\FN@pp@footnotehinttrue 
\FN@pp@footnotehinttrue 
\FN@pp@footnotehinttrue 
\FN@pp@footnotehinttrue 
\FN@pp@footnotehinttrue 
\FN@pp@footnotehinttrue 
\FN@pp@footnotehinttrue 
\FN@pp@footnotehinttrue 
\FN@pp@footnotehinttrue 
\FN@pp@footnotehinttrue 
\FN@pp@footnotehinttrue 
\FN@pp@footnotehinttrue 
\FN@pp@footnotehinttrue 
\FN@pp@footnotehinttrue 
\FN@pp@footnotehinttrue 
\BKM@entry{id=2,open,dest={73656374696F6E2E416C7068302E31},srcline={31}}{4131204E6F746174696F6E}
\BKM@entry{id=3,open,dest={73656374696F6E2E416C7068302E32},srcline={65}}{413220566563746F72206F7065726174696F6E73}
\abx@aux@cite{bird2004higher}
\abx@aux@segm{0}{0}{bird2004higher}
\BKM@entry{id=4,open,dest={73656374696F6E2E416C7068302E33},srcline={199}}{4133204669656C64206F70657261746F7273}
\BKM@entry{id=5,open,dest={73656374696F6E2E416C7068302E34},srcline={368}}{41342044657269766174696F6E73206F6620746865204265726E6F756C6C69206571756174696F6E}
\BKM@entry{id=6,open,dest={73656374696F6E2E416C7068302E35},srcline={453}}{413520466C6F7720706172616D657465727320617320666F72636520726174696F73}
\abx@aux@cite{massey1983}
\abx@aux@segm{0}{0}{massey1983}
\BKM@entry{id=7,open,dest={73656374696F6E2E416C7068302E36},srcline={538}}{41362044657461696C73206F66207468652077696E74657220323032302D323032312066696E616C206578616D696E6174696F6E205C287570646174656420466562727561727920323032315C29}
\BKM@entry{id=8,open,dest={73656374696F6E2E416C7068302E37},srcline={599}}{4137204578616D706C65206F662070726576696F7573206578616D696E6174696F6E73}
\BKM@entry{id=9,open,dest={73656374696F6E2E416C7068302E38},srcline={612}}{4138204C697374206F66207265666572656E636573}
\abx@aux@cite{white2008}
\abx@aux@segm{0}{0}{white2008}
\abx@aux@cite{cengelcimbala2010}
\abx@aux@segm{0}{0}{cengelcimbala2010}
\abx@aux@cite{munsonetal2013}
\abx@aux@segm{0}{0}{munsonetal2013}
\abx@aux@cite{denevers2004}
\abx@aux@segm{0}{0}{denevers2004}
\abx@aux@refcontextdefaultsdone
\abx@aux@defaultrefcontext{0}{abbottvondoenhoff1959}{ynt/global//global/global}
\abx@aux@defaultrefcontext{0}{batchelor1967}{ynt/global//global/global}
\abx@aux@defaultrefcontext{0}{taylor1967}{ynt/global//global/global}
\abx@aux@defaultrefcontext{0}{lumley1969}{ynt/global//global/global}
\abx@aux@defaultrefcontext{0}{tennekesetal1972}{ynt/global//global/global}
\abx@aux@defaultrefcontext{0}{massey1983}{ynt/global//global/global}
\abx@aux@defaultrefcontext{0}{gerhartgross1985}{ynt/global//global/global}
\abx@aux@defaultrefcontext{0}{tennekes1992}{ynt/global//global/global}
\abx@aux@defaultrefcontext{0}{anderson1995}{ynt/global//global/global}
\abx@aux@defaultrefcontext{0}{libby1996introduction}{ynt/global//global/global}
\abx@aux@defaultrefcontext{0}{barlowraepope1999}{ynt/global//global/global}
\abx@aux@defaultrefcontext{0}{mathieuscott2000}{ynt/global//global/global}
\abx@aux@defaultrefcontext{0}{pope2000}{ynt/global//global/global}
\abx@aux@defaultrefcontext{0}{croweetal2001}{ynt/global//global/global}
\abx@aux@defaultrefcontext{0}{bernard2002turbulent}{ynt/global//global/global}
\abx@aux@defaultrefcontext{0}{bird2004higher}{ynt/global//global/global}
\abx@aux@defaultrefcontext{0}{cebeci2004analysisturbulentflows}{ynt/global//global/global}
\abx@aux@defaultrefcontext{0}{denevers2004}{ynt/global//global/global}
\abx@aux@defaultrefcontext{0}{sagaut2006les}{ynt/global//global/global}
\abx@aux@defaultrefcontext{0}{wilkes2006}{ynt/global//global/global}
\abx@aux@defaultrefcontext{0}{versteegetal2007}{ynt/global//global/global}
\abx@aux@defaultrefcontext{0}{ncfmfmit}{ynt/global//global/global}
\abx@aux@defaultrefcontext{0}{white2008}{ynt/global//global/global}
\abx@aux@defaultrefcontext{0}{tennekes2009}{ynt/global//global/global}
\abx@aux@defaultrefcontext{0}{bertincummings2010}{ynt/global//global/global}
\abx@aux@defaultrefcontext{0}{cengelcimbala2010}{ynt/global//global/global}
\abx@aux@defaultrefcontext{0}{schlatter2010structure}{ynt/global//global/global}
\abx@aux@defaultrefcontext{0}{schlatter2010assessment}{ynt/global//global/global}
\abx@aux@defaultrefcontext{0}{lee2012spatially}{ynt/global//global/global}
\abx@aux@defaultrefcontext{0}{munsonetal2013}{ynt/global//global/global}
\abx@aux@defaultrefcontext{0}{tuetal2018computational}{ynt/global//global/global}
\abx@aux@defaultrefcontext{0}{davidson2015}{ynt/global//global/global}
\abx@aux@defaultrefcontext{0}{leschziner2015}{ynt/global//global/global}
\abx@aux@defaultrefcontext{0}{suetal2018ocean}{ynt/global//global/global}
\abx@aux@defaultrefcontext{0}{cleynen2020accessibility}{ynt/global//global/global}
\abx@aux@defaultrefcontext{0}{cleynen2020fluidmechgit}{ynt/global//global/global}
\abx@aux@defaultrefcontext{0}{cleynenetal2020peergraded}{ynt/global//global/global}
\abx@aux@defaultrefcontext{0}{cleynenvoss2020laptop}{ynt/global//global/global}
\global\mtcsecondpartfalse
